info face="crackman" size=64 bold=0 italic=0 charset="" unicode=1 stretchH=100 smooth=1 aa=2 padding=0,0,0,0 spacing=0,0
common lineHeight=77 base=58 scaleW=512 scaleH=512 pages=4 packed=0 alphaChnl=0 redChnl=0 greenChnl=0 blueChnl=0
page id=0 file="test_0.png"
page id=1 file="test_1.png"
page id=2 file="test_2.png"
page id=3 file="test_3.png"
chars count=96
char id=10   x=96   y=392  width=25   height=42   xoffset=2    yoffset=16   xadvance=29   page=3    chnl=0
char id=32   x=0    y=0    width=0    height=0    xoffset=0    yoffset=0    xadvance=15   page=0    chnl=0
char id=33   x=140  y=295  width=24   height=46   xoffset=2    yoffset=15   xadvance=28   page=3    chnl=0
char id=34   x=1    y=485  width=39   height=24   xoffset=2    yoffset=15   xadvance=43   page=3    chnl=0
char id=35   x=323  y=151  width=42   height=41   xoffset=2    yoffset=20   xadvance=46   page=3    chnl=0
char id=36   x=367  y=194  width=30   height=46   xoffset=0    yoffset=15   xadvance=31   page=3    chnl=0
char id=37   x=399  y=194  width=47   height=46   xoffset=0    yoffset=15   xadvance=48   page=3    chnl=0
char id=38   x=448  y=194  width=34   height=46   xoffset=1    yoffset=15   xadvance=36   page=3    chnl=0
char id=39   x=96   y=486  width=24   height=24   xoffset=2    yoffset=15   xadvance=28   page=3    chnl=0
char id=40   x=73   y=245  width=17   height=45   xoffset=2    yoffset=15   xadvance=22   page=3    chnl=0
char id=41   x=490  y=49   width=21   height=46   xoffset=4    yoffset=14   xadvance=26   page=3    chnl=0
char id=42   x=414  y=151  width=22   height=24   xoffset=1    yoffset=29   xadvance=24   page=3    chnl=0
char id=43   x=249  y=151  width=38   height=38   xoffset=2    yoffset=18   xadvance=42   page=3    chnl=0
char id=44   x=140  y=417  width=24   height=24   xoffset=1    yoffset=37   xadvance=27   page=3    chnl=0
char id=45   x=140  y=486  width=32   height=17   xoffset=2    yoffset=27   xadvance=35   page=3    chnl=0
char id=46   x=140  y=391  width=25   height=24   xoffset=1    yoffset=37   xadvance=27   page=3    chnl=0
char id=47   x=221  y=194  width=46   height=46   xoffset=0    yoffset=15   xadvance=46   page=3    chnl=0
char id=48   x=140  y=247  width=37   height=46   xoffset=1    yoffset=15   xadvance=39   page=3    chnl=0
char id=49   x=96   y=436  width=25   height=48   xoffset=1    yoffset=13   xadvance=28   page=3    chnl=0
char id=50   x=261  y=100  width=34   height=46   xoffset=2    yoffset=15   xadvance=38   page=3    chnl=0
char id=51   x=297  y=100  width=35   height=46   xoffset=0    yoffset=15   xadvance=36   page=3    chnl=0
char id=52   x=334  y=100  width=42   height=46   xoffset=1    yoffset=15   xadvance=44   page=3    chnl=0
char id=53   x=378  y=100  width=34   height=46   xoffset=1    yoffset=15   xadvance=36   page=3    chnl=0
char id=54   x=414  y=100  width=35   height=46   xoffset=1    yoffset=15   xadvance=36   page=3    chnl=0
char id=55   x=451  y=100  width=46   height=46   xoffset=-1   yoffset=15   xadvance=41   page=3    chnl=0
char id=56   x=140  y=151  width=37   height=46   xoffset=1    yoffset=15   xadvance=39   page=3    chnl=0
char id=57   x=140  y=199  width=35   height=46   xoffset=2    yoffset=15   xadvance=38   page=3    chnl=0
char id=58   x=179  y=151  width=24   height=41   xoffset=1    yoffset=20   xadvance=27   page=3    chnl=0
char id=59   x=140  y=443  width=24   height=41   xoffset=2    yoffset=20   xadvance=28   page=3    chnl=0
char id=60   x=205  y=151  width=20   height=27   xoffset=3    yoffset=22   xadvance=27   page=3    chnl=0
char id=61   x=289  y=151  width=32   height=28   xoffset=2    yoffset=23   xadvance=35   page=3    chnl=0
char id=62   x=227  y=151  width=20   height=27   xoffset=3    yoffset=22   xadvance=24   page=3    chnl=0
char id=63   x=140  y=343  width=35   height=46   xoffset=0    yoffset=15   xadvance=36   page=3    chnl=0
char id=64   x=269  y=194  width=46   height=46   xoffset=1    yoffset=21   xadvance=48   page=3    chnl=0
char id=65   x=371  y=378  width=50   height=49   xoffset=-1   yoffset=12   xadvance=45   page=2    chnl=0
char id=66   x=142  y=361  width=39   height=46   xoffset=1    yoffset=15   xadvance=41   page=2    chnl=0
char id=67   x=371  y=429  width=45   height=46   xoffset=1    yoffset=15   xadvance=47   page=2    chnl=0
char id=68   x=423  y=378  width=47   height=46   xoffset=1    yoffset=15   xadvance=46   page=2    chnl=0
char id=69   x=142  y=409  width=38   height=46   xoffset=2    yoffset=15   xadvance=42   page=2    chnl=0
char id=70   x=142  y=457  width=38   height=46   xoffset=1    yoffset=15   xadvance=40   page=2    chnl=0
char id=71   x=423  y=426  width=46   height=46   xoffset=1    yoffset=15   xadvance=47   page=2    chnl=0
char id=72   x=1    y=1    width=44   height=46   xoffset=2    yoffset=15   xadvance=48   page=3    chnl=0
char id=73   x=1    y=49   width=24   height=46   xoffset=2    yoffset=15   xadvance=28   page=3    chnl=0
char id=74   x=1    y=97   width=37   height=46   xoffset=-1   yoffset=15   xadvance=38   page=3    chnl=0
char id=75   x=47   y=1    width=45   height=46   xoffset=1    yoffset=15   xadvance=44   page=3    chnl=0
char id=76   x=1    y=145  width=38   height=46   xoffset=0    yoffset=15   xadvance=38   page=3    chnl=0
char id=77   x=47   y=49   width=47   height=50   xoffset=1    yoffset=11   xadvance=50   page=3    chnl=0
char id=78   x=1    y=193  width=42   height=50   xoffset=3    yoffset=11   xadvance=47   page=3    chnl=0
char id=79   x=94   y=1    width=46   height=46   xoffset=1    yoffset=15   xadvance=48   page=3    chnl=0
char id=80   x=1    y=245  width=39   height=46   xoffset=0    yoffset=15   xadvance=39   page=3    chnl=0
char id=81   x=142  y=1    width=50   height=46   xoffset=1    yoffset=15   xadvance=49   page=3    chnl=0
char id=82   x=1    y=293  width=42   height=46   xoffset=0    yoffset=15   xadvance=39   page=3    chnl=0
char id=83   x=1    y=341  width=34   height=46   xoffset=1    yoffset=15   xadvance=36   page=3    chnl=0
char id=84   x=1    y=389  width=42   height=46   xoffset=-1   yoffset=15   xadvance=42   page=3    chnl=0
char id=85   x=1    y=437  width=37   height=46   xoffset=1    yoffset=15   xadvance=40   page=3    chnl=0
char id=86   x=96   y=49   width=50   height=49   xoffset=-3   yoffset=15   xadvance=45   page=3    chnl=0
char id=87   x=148  y=49   width=67   height=49   xoffset=-4   yoffset=15   xadvance=60   page=3    chnl=0
char id=88   x=194  y=1    width=41   height=46   xoffset=-2   yoffset=15   xadvance=37   page=3    chnl=0
char id=89   x=237  y=1    width=41   height=46   xoffset=-3   yoffset=15   xadvance=35   page=3    chnl=0
char id=90   x=280  y=1    width=42   height=46   xoffset=1    yoffset=15   xadvance=44   page=3    chnl=0
char id=91   x=179  y=194  width=17   height=45   xoffset=2    yoffset=15   xadvance=22   page=3    chnl=0
char id=92   x=317  y=194  width=48   height=46   xoffset=-2   yoffset=10   xadvance=46   page=3    chnl=0
char id=93   x=198  y=194  width=21   height=46   xoffset=4    yoffset=14   xadvance=26   page=3    chnl=0
char id=94   x=47   y=489  width=25   height=21   xoffset=4    yoffset=6    xadvance=32   page=3    chnl=0
char id=95   x=74   y=489  width=20   height=3    xoffset=1    yoffset=66   xadvance=22   page=3    chnl=0
char id=96   x=27   y=49   width=15   height=12   xoffset=5    yoffset=2    xadvance=24   page=3    chnl=0
char id=97   x=217  y=49   width=50   height=49   xoffset=-1   yoffset=12   xadvance=45   page=3    chnl=0
char id=98   x=324  y=1    width=39   height=46   xoffset=1    yoffset=15   xadvance=41   page=3    chnl=0
char id=99   x=365  y=1    width=45   height=46   xoffset=1    yoffset=15   xadvance=47   page=3    chnl=0
char id=100  x=412  y=1    width=47   height=46   xoffset=1    yoffset=15   xadvance=46   page=3    chnl=0
char id=101  x=461  y=1    width=38   height=46   xoffset=2    yoffset=15   xadvance=42   page=3    chnl=0
char id=102  x=47   y=101  width=38   height=46   xoffset=1    yoffset=15   xadvance=40   page=3    chnl=0
char id=103  x=47   y=149  width=46   height=46   xoffset=1    yoffset=15   xadvance=47   page=3    chnl=0
char id=104  x=47   y=197  width=44   height=46   xoffset=2    yoffset=15   xadvance=48   page=3    chnl=0
char id=105  x=47   y=245  width=24   height=46   xoffset=2    yoffset=15   xadvance=28   page=3    chnl=0
char id=106  x=47   y=293  width=37   height=46   xoffset=-1   yoffset=15   xadvance=38   page=3    chnl=0
char id=107  x=47   y=341  width=45   height=46   xoffset=1    yoffset=15   xadvance=44   page=3    chnl=0
char id=108  x=47   y=389  width=38   height=46   xoffset=0    yoffset=15   xadvance=38   page=3    chnl=0
char id=109  x=47   y=437  width=47   height=50   xoffset=1    yoffset=11   xadvance=50   page=3    chnl=0
char id=110  x=96   y=100  width=42   height=50   xoffset=3    yoffset=11   xadvance=47   page=3    chnl=0
char id=111  x=269  y=49   width=46   height=46   xoffset=1    yoffset=15   xadvance=48   page=3    chnl=0
char id=112  x=317  y=49   width=39   height=46   xoffset=0    yoffset=15   xadvance=39   page=3    chnl=0
char id=113  x=358  y=49   width=50   height=46   xoffset=1    yoffset=15   xadvance=49   page=3    chnl=0
char id=114  x=410  y=49   width=42   height=46   xoffset=0    yoffset=15   xadvance=39   page=3    chnl=0
char id=115  x=454  y=49   width=34   height=46   xoffset=1    yoffset=15   xadvance=36   page=3    chnl=0
char id=116  x=96   y=152  width=42   height=46   xoffset=-1   yoffset=15   xadvance=42   page=3    chnl=0
char id=117  x=96   y=200  width=37   height=46   xoffset=1    yoffset=15   xadvance=40   page=3    chnl=0
char id=118  x=140  y=100  width=50   height=49   xoffset=-3   yoffset=15   xadvance=45   page=3    chnl=0
char id=119  x=192  y=100  width=67   height=49   xoffset=-4   yoffset=15   xadvance=60   page=3    chnl=0
char id=120  x=96   y=248  width=41   height=46   xoffset=-2   yoffset=15   xadvance=37   page=3    chnl=0
char id=121  x=96   y=296  width=41   height=46   xoffset=-3   yoffset=15   xadvance=35   page=3    chnl=0
char id=122  x=96   y=344  width=42   height=46   xoffset=1    yoffset=15   xadvance=44   page=3    chnl=0
char id=123  x=179  y=241  width=17   height=45   xoffset=2    yoffset=15   xadvance=22   page=3    chnl=0
char id=124  x=198  y=290  width=18   height=57   xoffset=2    yoffset=9    xadvance=28   page=3    chnl=0
char id=125  x=198  y=242  width=21   height=46   xoffset=4    yoffset=14   xadvance=26   page=3    chnl=0
char id=126  x=367  y=151  width=45   height=20   xoffset=1    yoffset=27   xadvance=46   page=3    chnl=0
kernings count=336
kerning first=34 second=65 amount=-11
kerning first=34 second=97 amount=-11
kerning first=38 second=86 amount=-7
kerning first=38 second=87 amount=-7
kerning first=38 second=89 amount=-5
kerning first=38 second=118 amount=-7
kerning first=38 second=119 amount=-7
kerning first=38 second=121 amount=-5
kerning first=39 second=65 amount=-11
kerning first=39 second=97 amount=-11
kerning first=44 second=34 amount=-7
kerning first=44 second=39 amount=-7
kerning first=44 second=53 amount=-5
kerning first=44 second=56 amount=-5
kerning first=44 second=57 amount=-11
kerning first=44 second=67 amount=-5
kerning first=44 second=71 amount=-5
kerning first=44 second=79 amount=-5
kerning first=44 second=81 amount=-5
kerning first=44 second=84 amount=-8
kerning first=44 second=85 amount=-5
kerning first=44 second=86 amount=-14
kerning first=44 second=87 amount=-14
kerning first=44 second=89 amount=-7
kerning first=44 second=99 amount=-5
kerning first=44 second=103 amount=-5
kerning first=44 second=111 amount=-5
kerning first=44 second=113 amount=-5
kerning first=44 second=116 amount=-8
kerning first=44 second=117 amount=-5
kerning first=44 second=118 amount=-14
kerning first=44 second=119 amount=-14
kerning first=44 second=121 amount=-7
kerning first=45 second=84 amount=-6
kerning first=45 second=86 amount=-6
kerning first=45 second=87 amount=-6
kerning first=45 second=89 amount=-6
kerning first=45 second=90 amount=-5
kerning first=45 second=116 amount=-6
kerning first=45 second=118 amount=-6
kerning first=45 second=119 amount=-6
kerning first=45 second=121 amount=-6
kerning first=45 second=122 amount=-5
kerning first=46 second=34 amount=-7
kerning first=46 second=39 amount=-7
kerning first=46 second=53 amount=-5
kerning first=46 second=56 amount=-5
kerning first=46 second=57 amount=-11
kerning first=46 second=67 amount=-5
kerning first=46 second=71 amount=-5
kerning first=46 second=79 amount=-5
kerning first=46 second=81 amount=-5
kerning first=46 second=84 amount=-8
kerning first=46 second=85 amount=-5
kerning first=46 second=86 amount=-14
kerning first=46 second=87 amount=-14
kerning first=46 second=89 amount=-7
kerning first=46 second=99 amount=-5
kerning first=46 second=103 amount=-5
kerning first=46 second=111 amount=-5
kerning first=46 second=113 amount=-5
kerning first=46 second=116 amount=-8
kerning first=46 second=117 amount=-5
kerning first=46 second=118 amount=-14
kerning first=46 second=119 amount=-14
kerning first=46 second=121 amount=-7
kerning first=47 second=56 amount=-5
kerning first=47 second=65 amount=-16
kerning first=47 second=67 amount=-5
kerning first=47 second=71 amount=-5
kerning first=47 second=74 amount=-7
kerning first=47 second=79 amount=-5
kerning first=47 second=81 amount=-5
kerning first=47 second=97 amount=-16
kerning first=47 second=99 amount=-5
kerning first=47 second=103 amount=-5
kerning first=47 second=106 amount=-7
kerning first=47 second=111 amount=-5
kerning first=47 second=113 amount=-5
kerning first=55 second=44 amount=-7
kerning first=55 second=46 amount=-7
kerning first=56 second=34 amount=-6
kerning first=56 second=39 amount=-6
kerning first=56 second=86 amount=-6
kerning first=56 second=87 amount=-6
kerning first=56 second=89 amount=-5
kerning first=56 second=118 amount=-6
kerning first=56 second=119 amount=-6
kerning first=56 second=121 amount=-5
kerning first=65 second=34 amount=-11
kerning first=65 second=39 amount=-11
kerning first=65 second=45 amount=-8
kerning first=65 second=63 amount=-6
kerning first=65 second=79 amount=-5
kerning first=65 second=81 amount=-5
kerning first=65 second=86 amount=-10
kerning first=65 second=87 amount=-10
kerning first=65 second=89 amount=-5
kerning first=65 second=99 amount=-5
kerning first=65 second=103 amount=-5
kerning first=65 second=111 amount=-5
kerning first=65 second=113 amount=-5
kerning first=65 second=118 amount=-10
kerning first=65 second=119 amount=-10
kerning first=65 second=121 amount=-5
kerning first=66 second=34 amount=-6
kerning first=66 second=39 amount=-6
kerning first=66 second=86 amount=-6
kerning first=66 second=87 amount=-6
kerning first=66 second=89 amount=-5
kerning first=66 second=118 amount=-6
kerning first=66 second=119 amount=-6
kerning first=66 second=121 amount=-5
kerning first=67 second=34 amount=-6
kerning first=67 second=39 amount=-6
kerning first=67 second=86 amount=-6
kerning first=67 second=87 amount=-6
kerning first=67 second=89 amount=-5
kerning first=67 second=118 amount=-6
kerning first=67 second=119 amount=-6
kerning first=67 second=121 amount=-5
kerning first=68 second=34 amount=-6
kerning first=68 second=39 amount=-6
kerning first=68 second=86 amount=-6
kerning first=68 second=87 amount=-6
kerning first=68 second=89 amount=-5
kerning first=68 second=118 amount=-6
kerning first=68 second=119 amount=-6
kerning first=68 second=121 amount=-5
kerning first=70 second=44 amount=-7
kerning first=70 second=46 amount=-7
kerning first=70 second=47 amount=-10
kerning first=70 second=65 amount=-9
kerning first=70 second=97 amount=-9
kerning first=71 second=34 amount=-5
kerning first=71 second=39 amount=-5
kerning first=71 second=86 amount=-5
kerning first=71 second=87 amount=-5
kerning first=71 second=118 amount=-5
kerning first=71 second=119 amount=-5
kerning first=75 second=38 amount=-5
kerning first=75 second=44 amount=-8
kerning first=75 second=45 amount=-7
kerning first=75 second=46 amount=-8
kerning first=76 second=34 amount=-11
kerning first=76 second=39 amount=-11
kerning first=76 second=45 amount=-9
kerning first=76 second=84 amount=-7
kerning first=76 second=86 amount=-11
kerning first=76 second=87 amount=-11
kerning first=76 second=89 amount=-5
kerning first=76 second=116 amount=-7
kerning first=76 second=118 amount=-11
kerning first=76 second=119 amount=-11
kerning first=76 second=121 amount=-5
kerning first=79 second=34 amount=-6
kerning first=79 second=39 amount=-6
kerning first=79 second=86 amount=-6
kerning first=79 second=87 amount=-6
kerning first=79 second=89 amount=-5
kerning first=79 second=118 amount=-6
kerning first=79 second=119 amount=-6
kerning first=79 second=121 amount=-5
kerning first=80 second=44 amount=-6
kerning first=80 second=46 amount=-6
kerning first=80 second=47 amount=-9
kerning first=80 second=65 amount=-8
kerning first=80 second=97 amount=-8
kerning first=81 second=34 amount=-5
kerning first=81 second=39 amount=-5
kerning first=81 second=86 amount=-5
kerning first=81 second=87 amount=-5
kerning first=81 second=118 amount=-5
kerning first=81 second=119 amount=-5
kerning first=82 second=44 amount=-5
kerning first=82 second=46 amount=-5
kerning first=84 second=44 amount=-9
kerning first=84 second=46 amount=-9
kerning first=84 second=47 amount=-8
kerning first=84 second=65 amount=-8
kerning first=84 second=97 amount=-8
kerning first=86 second=44 amount=-10
kerning first=86 second=46 amount=-10
kerning first=86 second=47 amount=-14
kerning first=86 second=65 amount=-12
kerning first=86 second=74 amount=-5
kerning first=86 second=97 amount=-12
kerning first=86 second=106 amount=-5
kerning first=87 second=44 amount=-10
kerning first=87 second=46 amount=-10
kerning first=87 second=47 amount=-14
kerning first=87 second=65 amount=-12
kerning first=87 second=74 amount=-5
kerning first=87 second=97 amount=-12
kerning first=87 second=106 amount=-5
kerning first=88 second=38 amount=-5
kerning first=89 second=44 amount=-6
kerning first=89 second=46 amount=-6
kerning first=89 second=47 amount=-9
kerning first=89 second=65 amount=-7
kerning first=89 second=97 amount=-7
kerning first=90 second=45 amount=-5
kerning first=90 second=56 amount=-5
kerning first=90 second=67 amount=-5
kerning first=90 second=71 amount=-5
kerning first=90 second=79 amount=-5
kerning first=90 second=81 amount=-5
kerning first=90 second=99 amount=-5
kerning first=90 second=103 amount=-5
kerning first=90 second=111 amount=-5
kerning first=90 second=113 amount=-5
kerning first=97 second=34 amount=-11
kerning first=97 second=39 amount=-11
kerning first=97 second=45 amount=-8
kerning first=97 second=56 amount=-5
kerning first=97 second=63 amount=-6
kerning first=97 second=67 amount=-5
kerning first=97 second=71 amount=-5
kerning first=97 second=79 amount=-5
kerning first=97 second=81 amount=-5
kerning first=97 second=86 amount=-10
kerning first=97 second=87 amount=-10
kerning first=97 second=89 amount=-5
kerning first=97 second=99 amount=-5
kerning first=97 second=103 amount=-5
kerning first=97 second=111 amount=-5
kerning first=97 second=113 amount=-5
kerning first=97 second=118 amount=-10
kerning first=97 second=119 amount=-10
kerning first=97 second=121 amount=-5
kerning first=98 second=34 amount=-6
kerning first=98 second=39 amount=-6
kerning first=98 second=86 amount=-6
kerning first=98 second=87 amount=-6
kerning first=98 second=89 amount=-5
kerning first=98 second=118 amount=-6
kerning first=98 second=119 amount=-6
kerning first=98 second=121 amount=-5
kerning first=99 second=34 amount=-6
kerning first=99 second=39 amount=-6
kerning first=99 second=86 amount=-6
kerning first=99 second=87 amount=-6
kerning first=99 second=89 amount=-5
kerning first=99 second=118 amount=-6
kerning first=99 second=119 amount=-6
kerning first=99 second=121 amount=-5
kerning first=100 second=34 amount=-6
kerning first=100 second=39 amount=-6
kerning first=100 second=86 amount=-6
kerning first=100 second=87 amount=-6
kerning first=100 second=89 amount=-5
kerning first=100 second=118 amount=-6
kerning first=100 second=119 amount=-6
kerning first=100 second=121 amount=-5
kerning first=102 second=44 amount=-7
kerning first=102 second=46 amount=-7
kerning first=102 second=47 amount=-10
kerning first=102 second=65 amount=-9
kerning first=102 second=97 amount=-9
kerning first=103 second=34 amount=-5
kerning first=103 second=39 amount=-5
kerning first=103 second=86 amount=-5
kerning first=103 second=87 amount=-5
kerning first=103 second=118 amount=-5
kerning first=103 second=119 amount=-5
kerning first=107 second=38 amount=-5
kerning first=107 second=44 amount=-8
kerning first=107 second=45 amount=-7
kerning first=107 second=46 amount=-8
kerning first=108 second=34 amount=-11
kerning first=108 second=39 amount=-11
kerning first=108 second=45 amount=-9
kerning first=108 second=84 amount=-7
kerning first=108 second=86 amount=-11
kerning first=108 second=87 amount=-11
kerning first=108 second=89 amount=-5
kerning first=108 second=116 amount=-7
kerning first=108 second=118 amount=-11
kerning first=108 second=119 amount=-11
kerning first=108 second=121 amount=-5
kerning first=111 second=34 amount=-6
kerning first=111 second=39 amount=-6
kerning first=111 second=86 amount=-6
kerning first=111 second=87 amount=-6
kerning first=111 second=89 amount=-5
kerning first=111 second=118 amount=-6
kerning first=111 second=119 amount=-6
kerning first=111 second=121 amount=-5
kerning first=112 second=44 amount=-6
kerning first=112 second=46 amount=-6
kerning first=112 second=47 amount=-9
kerning first=112 second=65 amount=-8
kerning first=112 second=97 amount=-8
kerning first=113 second=34 amount=-5
kerning first=113 second=39 amount=-5
kerning first=113 second=86 amount=-5
kerning first=113 second=87 amount=-5
kerning first=113 second=118 amount=-5
kerning first=113 second=119 amount=-5
kerning first=114 second=44 amount=-5
kerning first=114 second=46 amount=-5
kerning first=116 second=44 amount=-9
kerning first=116 second=46 amount=-9
kerning first=116 second=47 amount=-8
kerning first=116 second=65 amount=-8
kerning first=116 second=97 amount=-8
kerning first=118 second=44 amount=-10
kerning first=118 second=46 amount=-10
kerning first=118 second=47 amount=-14
kerning first=118 second=65 amount=-12
kerning first=118 second=74 amount=-5
kerning first=118 second=97 amount=-12
kerning first=118 second=106 amount=-5
kerning first=119 second=44 amount=-10
kerning first=119 second=46 amount=-10
kerning first=119 second=47 amount=-14
kerning first=119 second=65 amount=-12
kerning first=119 second=74 amount=-5
kerning first=119 second=97 amount=-12
kerning first=119 second=106 amount=-5
kerning first=120 second=38 amount=-5
kerning first=121 second=44 amount=-6
kerning first=121 second=46 amount=-6
kerning first=121 second=47 amount=-9
kerning first=121 second=65 amount=-7
kerning first=121 second=97 amount=-7
kerning first=122 second=45 amount=-5
kerning first=122 second=56 amount=-5
kerning first=122 second=67 amount=-5
kerning first=122 second=71 amount=-5
kerning first=122 second=79 amount=-5
kerning first=122 second=81 amount=-5
kerning first=122 second=99 amount=-5
kerning first=122 second=103 amount=-5
kerning first=122 second=111 amount=-5
kerning first=122 second=113 amount=-5
